-- Merging decision tree log ---
manifest
ADDED from F:\PREST2019\PoliceAttendance\policeFaceBiometrics\src\main\AndroidManifest.xml:2:1-209:12
	package
		ADDED from F:\PREST2019\PoliceAttendance\policeFaceBiometrics\src\main\AndroidManifest.xml:4:5-35
		INJECTED from F:\PREST2019\PoliceAttendance\policeFaceBiometrics\src\main\AndroidManifest.xml
		INJECTED from F:\PREST2019\PoliceAttendance\policeFaceBiometrics\src\main\AndroidManifest.xml
	android:versionName
		ADDED from F:\PREST2019\PoliceAttendance\policeFaceBiometrics\src\main\AndroidManifest.xml:6:5-30
		INJECTED from F:\PREST2019\PoliceAttendance\policeFaceBiometrics\src\main\AndroidManifest.xml
		INJECTED from F:\PREST2019\PoliceAttendance\policeFaceBiometrics\src\main\AndroidManifest.xml
	xmlns:tools
		ADDED from F:\PREST2019\PoliceAttendance\policeFaceBiometrics\src\main\AndroidManifest.xml:3:5-51
	android:versionCode
		ADDED from F:\PREST2019\PoliceAttendance\policeFaceBiometrics\src\main\AndroidManifest.xml:5:5-28
		INJECTED from F:\PREST2019\PoliceAttendance\policeFaceBiometrics\src\main\AndroidManifest.xml
		INJECTED from F:\PREST2019\PoliceAttendance\policeFaceBiometrics\src\main\AndroidManifest.xml
	xmlns:android
		ADDED from F:\PREST2019\PoliceAttendance\policeFaceBiometrics\src\main\AndroidManifest.xml:2:11-69
uses-sdk
ADDED from F:\PREST2019\PoliceAttendance\policeFaceBiometrics\src\main\AndroidManifest.xml:8:5-10:41
	android:targetSdkVersion
		ADDED from F:\PREST2019\PoliceAttendance\policeFaceBiometrics\src\main\AndroidManifest.xml:10:9-38
		INJECTED from F:\PREST2019\PoliceAttendance\policeFaceBiometrics\src\main\AndroidManifest.xml
		INJECTED from F:\PREST2019\PoliceAttendance\policeFaceBiometrics\src\main\AndroidManifest.xml
	android:minSdkVersion
		ADDED from F:\PREST2019\PoliceAttendance\policeFaceBiometrics\src\main\AndroidManifest.xml:9:9-35
		INJECTED from F:\PREST2019\PoliceAttendance\policeFaceBiometrics\src\main\AndroidManifest.xml
		INJECTED from F:\PREST2019\PoliceAttendance\policeFaceBiometrics\src\main\AndroidManifest.xml
uses-permission#android.permission.WRITE_EXTERNAL_STORAGE
ADDED from F:\PREST2019\PoliceAttendance\policeFaceBiometrics\src\main\AndroidManifest.xml:12:5-81
	android:name
		ADDED from F:\PREST2019\PoliceAttendance\policeFaceBiometrics\src\main\AndroidManifest.xml:12:22-78
uses-permission#android.permission.USB_PERMISSION
ADDED from F:\PREST2019\PoliceAttendance\policeFaceBiometrics\src\main\AndroidManifest.xml:13:5-73
	android:name
		ADDED from F:\PREST2019\PoliceAttendance\policeFaceBiometrics\src\main\AndroidManifest.xml:13:22-70
uses-feature#android.hardware.usb.host
ADDED from F:\PREST2019\PoliceAttendance\policeFaceBiometrics\src\main\AndroidManifest.xml:15:5-62
	android:name
		ADDED from F:\PREST2019\PoliceAttendance\policeFaceBiometrics\src\main\AndroidManifest.xml:15:19-59
uses-permission#android.permission.INTERNET
ADDED from F:\PREST2019\PoliceAttendance\policeFaceBiometrics\src\main\AndroidManifest.xml:17:5-83
	android:name
		ADDED from F:\PREST2019\PoliceAttendance\policeFaceBiometrics\src\main\AndroidManifest.xml:17:22-64
uses-permission#android.permission.WRITE_OWNER_DATA
ADDED from F:\PREST2019\PoliceAttendance\policeFaceBiometrics\src\main\AndroidManifest.xml:18:5-91
	android:name
		ADDED from F:\PREST2019\PoliceAttendance\policeFaceBiometrics\src\main\AndroidManifest.xml:18:22-72
uses-permission#android.permission.CAMERA
ADDED from F:\PREST2019\PoliceAttendance\policeFaceBiometrics\src\main\AndroidManifest.xml:19:5-81
	android:name
		ADDED from F:\PREST2019\PoliceAttendance\policeFaceBiometrics\src\main\AndroidManifest.xml:19:22-62
uses-permission#android.permission.ACCESS_FINE_LOCATION
ADDED from F:\PREST2019\PoliceAttendance\policeFaceBiometrics\src\main\AndroidManifest.xml:20:5-95
	android:name
		ADDED from F:\PREST2019\PoliceAttendance\policeFaceBiometrics\src\main\AndroidManifest.xml:20:22-76
uses-permission#android.permission.ACCESS_COARSE_LOCATION
ADDED from F:\PREST2019\PoliceAttendance\policeFaceBiometrics\src\main\AndroidManifest.xml:21:5-97
	android:name
		ADDED from F:\PREST2019\PoliceAttendance\policeFaceBiometrics\src\main\AndroidManifest.xml:21:22-78
uses-permission#android.permission.ACCESS_NETWORK_STATE
ADDED from F:\PREST2019\PoliceAttendance\policeFaceBiometrics\src\main\AndroidManifest.xml:23:5-79
	android:name
		ADDED from F:\PREST2019\PoliceAttendance\policeFaceBiometrics\src\main\AndroidManifest.xml:23:22-76
uses-permission#com.google.android.providers.gsf.permission.READ_GSERVICES
ADDED from F:\PREST2019\PoliceAttendance\policeFaceBiometrics\src\main\AndroidManifest.xml:24:5-98
	android:name
		ADDED from F:\PREST2019\PoliceAttendance\policeFaceBiometrics\src\main\AndroidManifest.xml:24:22-95
uses-permission#android.permission.READ_PHONE_STATE
ADDED from F:\PREST2019\PoliceAttendance\policeFaceBiometrics\src\main\AndroidManifest.xml:25:5-75
	android:name
		ADDED from F:\PREST2019\PoliceAttendance\policeFaceBiometrics\src\main\AndroidManifest.xml:25:22-72
uses-feature#0x00020000
ADDED from F:\PREST2019\PoliceAttendance\policeFaceBiometrics\src\main\AndroidManifest.xml:27:5-29:35
	android:glEsVersion
		ADDED from F:\PREST2019\PoliceAttendance\policeFaceBiometrics\src\main\AndroidManifest.xml:28:9-41
	android:required
		ADDED from F:\PREST2019\PoliceAttendance\policeFaceBiometrics\src\main\AndroidManifest.xml:29:9-32
uses-feature#android.hardware.camera
ADDED from F:\PREST2019\PoliceAttendance\policeFaceBiometrics\src\main\AndroidManifest.xml:30:5-60
	android:name
		ADDED from F:\PREST2019\PoliceAttendance\policeFaceBiometrics\src\main\AndroidManifest.xml:30:19-57
uses-feature#android.hardware.camera.autofocus
ADDED from F:\PREST2019\PoliceAttendance\policeFaceBiometrics\src\main\AndroidManifest.xml:31:5-70
	android:name
		ADDED from F:\PREST2019\PoliceAttendance\policeFaceBiometrics\src\main\AndroidManifest.xml:31:19-67
uses-permission#android.permission.READ_EXTERNAL_STORAGE
ADDED from F:\PREST2019\PoliceAttendance\policeFaceBiometrics\src\main\AndroidManifest.xml:33:5-80
	android:name
		ADDED from F:\PREST2019\PoliceAttendance\policeFaceBiometrics\src\main\AndroidManifest.xml:33:22-77
application
ADDED from F:\PREST2019\PoliceAttendance\policeFaceBiometrics\src\main\AndroidManifest.xml:35:5-207:19
	android:label
		ADDED from F:\PREST2019\PoliceAttendance\policeFaceBiometrics\src\main\AndroidManifest.xml:37:9-41
	tools:overrideLibrary
		ADDED from F:\PREST2019\PoliceAttendance\policeFaceBiometrics\src\main\AndroidManifest.xml:38:9-53
	android:icon
		ADDED from F:\PREST2019\PoliceAttendance\policeFaceBiometrics\src\main\AndroidManifest.xml:36:9-38
	tools:replace
		ADDED from F:\PREST2019\PoliceAttendance\policeFaceBiometrics\src\main\AndroidManifest.xml:39:9-37
uses-library#com.google.android.maps
ADDED from F:\PREST2019\PoliceAttendance\policeFaceBiometrics\src\main\AndroidManifest.xml:40:9-42:39
	android:required
		ADDED from F:\PREST2019\PoliceAttendance\policeFaceBiometrics\src\main\AndroidManifest.xml:42:13-36
	android:name
		ADDED from F:\PREST2019\PoliceAttendance\policeFaceBiometrics\src\main\AndroidManifest.xml:41:13-51
activity#com.policeattendance.CustomListView
ADDED from F:\PREST2019\PoliceAttendance\policeFaceBiometrics\src\main\AndroidManifest.xml:44:9-57:20
	android:label
		ADDED from F:\PREST2019\PoliceAttendance\policeFaceBiometrics\src\main\AndroidManifest.xml:46:13-45
	android:name
		ADDED from F:\PREST2019\PoliceAttendance\policeFaceBiometrics\src\main\AndroidManifest.xml:45:13-63
activity#com.policeattendance.ElectionScreen
ADDED from F:\PREST2019\PoliceAttendance\policeFaceBiometrics\src\main\AndroidManifest.xml:58:9-76:20
	android:label
		ADDED from F:\PREST2019\PoliceAttendance\policeFaceBiometrics\src\main\AndroidManifest.xml:60:13-45
	android:noHistory
		ADDED from F:\PREST2019\PoliceAttendance\policeFaceBiometrics\src\main\AndroidManifest.xml:61:13-37
	android:name
		ADDED from F:\PREST2019\PoliceAttendance\policeFaceBiometrics\src\main\AndroidManifest.xml:59:13-63
intent-filter#android.intent.action.MAIN+android.intent.category.LAUNCHER
ADDED from F:\PREST2019\PoliceAttendance\policeFaceBiometrics\src\main\AndroidManifest.xml:62:13-66:29
action#android.intent.action.MAIN
ADDED from F:\PREST2019\PoliceAttendance\policeFaceBiometrics\src\main\AndroidManifest.xml:63:17-69
	android:name
		ADDED from F:\PREST2019\PoliceAttendance\policeFaceBiometrics\src\main\AndroidManifest.xml:63:25-66
category#android.intent.category.LAUNCHER
ADDED from F:\PREST2019\PoliceAttendance\policeFaceBiometrics\src\main\AndroidManifest.xml:65:17-77
	android:name
		ADDED from F:\PREST2019\PoliceAttendance\policeFaceBiometrics\src\main\AndroidManifest.xml:65:27-74
activity#com.policeattendance.FtrScanDemoUsbHostActivity
ADDED from F:\PREST2019\PoliceAttendance\policeFaceBiometrics\src\main\AndroidManifest.xml:77:9-73
	android:name
		ADDED from F:\PREST2019\PoliceAttendance\policeFaceBiometrics\src\main\AndroidManifest.xml:77:19-61
activity#com.policeattendance.SelectFileFormatActivity
ADDED from F:\PREST2019\PoliceAttendance\policeFaceBiometrics\src\main\AndroidManifest.xml:78:9-80:82
	android:label
		ADDED from F:\PREST2019\PoliceAttendance\policeFaceBiometrics\src\main\AndroidManifest.xml:80:13-70
	android:name
		ADDED from F:\PREST2019\PoliceAttendance\policeFaceBiometrics\src\main\AndroidManifest.xml:79:13-73
activity#com.policeattendance.Splash
ADDED from F:\PREST2019\PoliceAttendance\policeFaceBiometrics\src\main\AndroidManifest.xml:81:9-73
	android:name
		ADDED from F:\PREST2019\PoliceAttendance\policeFaceBiometrics\src\main\AndroidManifest.xml:81:19-61
activity#com.policeattendance.main
ADDED from F:\PREST2019\PoliceAttendance\policeFaceBiometrics\src\main\AndroidManifest.xml:82:9-84:57
	android:label
		ADDED from F:\PREST2019\PoliceAttendance\policeFaceBiometrics\src\main\AndroidManifest.xml:84:13-45
	android:name
		ADDED from F:\PREST2019\PoliceAttendance\policeFaceBiometrics\src\main\AndroidManifest.xml:83:13-53
activity#com.policeattendance.Home
ADDED from F:\PREST2019\PoliceAttendance\policeFaceBiometrics\src\main\AndroidManifest.xml:85:9-93:20
	android:label
		ADDED from F:\PREST2019\PoliceAttendance\policeFaceBiometrics\src\main\AndroidManifest.xml:87:13-45
	android:name
		ADDED from F:\PREST2019\PoliceAttendance\policeFaceBiometrics\src\main\AndroidManifest.xml:86:13-53
intent-filter#android.intent.category.DEFAULT+com.policeattendance.LoginActivity
ADDED from F:\PREST2019\PoliceAttendance\policeFaceBiometrics\src\main\AndroidManifest.xml:88:13-92:29
action#com.policeattendance.LoginActivity
ADDED from F:\PREST2019\PoliceAttendance\policeFaceBiometrics\src\main\AndroidManifest.xml:89:17-77
	android:name
		ADDED from F:\PREST2019\PoliceAttendance\policeFaceBiometrics\src\main\AndroidManifest.xml:89:25-74
category#android.intent.category.DEFAULT
ADDED from F:\PREST2019\PoliceAttendance\policeFaceBiometrics\src\main\AndroidManifest.xml:91:17-76
	android:name
		ADDED from F:\PREST2019\PoliceAttendance\policeFaceBiometrics\src\main\AndroidManifest.xml:91:27-73
activity#com.policeattendance.StartPage
ADDED from F:\PREST2019\PoliceAttendance\policeFaceBiometrics\src\main\AndroidManifest.xml:94:9-103:20
	android:label
		ADDED from F:\PREST2019\PoliceAttendance\policeFaceBiometrics\src\main\AndroidManifest.xml:97:13-45
	android:configChanges
		ADDED from F:\PREST2019\PoliceAttendance\policeFaceBiometrics\src\main\AndroidManifest.xml:96:13-63
	android:name
		ADDED from F:\PREST2019\PoliceAttendance\policeFaceBiometrics\src\main\AndroidManifest.xml:95:13-58
intent-filter#android.intent.category.DEFAULT+com.policeattendance.StartPage
ADDED from F:\PREST2019\PoliceAttendance\policeFaceBiometrics\src\main\AndroidManifest.xml:98:13-102:29
action#com.policeattendance.StartPage
ADDED from F:\PREST2019\PoliceAttendance\policeFaceBiometrics\src\main\AndroidManifest.xml:99:17-73
	android:name
		ADDED from F:\PREST2019\PoliceAttendance\policeFaceBiometrics\src\main\AndroidManifest.xml:99:25-70
activity#com.policeattendance.CameraDemo
ADDED from F:\PREST2019\PoliceAttendance\policeFaceBiometrics\src\main\AndroidManifest.xml:104:9-112:20
	android:label
		ADDED from F:\PREST2019\PoliceAttendance\policeFaceBiometrics\src\main\AndroidManifest.xml:106:13-45
	android:name
		ADDED from F:\PREST2019\PoliceAttendance\policeFaceBiometrics\src\main\AndroidManifest.xml:105:13-59
intent-filter#android.intent.category.DEFAULT+com.policeattendance.CameraDemo
ADDED from F:\PREST2019\PoliceAttendance\policeFaceBiometrics\src\main\AndroidManifest.xml:107:13-111:29
action#com.policeattendance.CameraDemo
ADDED from F:\PREST2019\PoliceAttendance\policeFaceBiometrics\src\main\AndroidManifest.xml:108:17-74
	android:name
		ADDED from F:\PREST2019\PoliceAttendance\policeFaceBiometrics\src\main\AndroidManifest.xml:108:25-71
activity#com.policeattendance.AndroidExplorer
ADDED from F:\PREST2019\PoliceAttendance\policeFaceBiometrics\src\main\AndroidManifest.xml:113:9-121:20
	android:label
		ADDED from F:\PREST2019\PoliceAttendance\policeFaceBiometrics\src\main\AndroidManifest.xml:115:13-45
	android:name
		ADDED from F:\PREST2019\PoliceAttendance\policeFaceBiometrics\src\main\AndroidManifest.xml:114:13-64
intent-filter#android.intent.category.DEFAULT+com.policeattendance.AndroidExplorer
ADDED from F:\PREST2019\PoliceAttendance\policeFaceBiometrics\src\main\AndroidManifest.xml:116:13-120:29
action#com.policeattendance.AndroidExplorer
ADDED from F:\PREST2019\PoliceAttendance\policeFaceBiometrics\src\main\AndroidManifest.xml:117:17-79
	android:name
		ADDED from F:\PREST2019\PoliceAttendance\policeFaceBiometrics\src\main\AndroidManifest.xml:117:25-76
activity#com.policeattendance.ShowMap
ADDED from F:\PREST2019\PoliceAttendance\policeFaceBiometrics\src\main\AndroidManifest.xml:122:9-130:20
	android:label
		ADDED from F:\PREST2019\PoliceAttendance\policeFaceBiometrics\src\main\AndroidManifest.xml:124:13-45
	android:name
		ADDED from F:\PREST2019\PoliceAttendance\policeFaceBiometrics\src\main\AndroidManifest.xml:123:13-56
intent-filter#android.intent.category.DEFAULT+com.policeattendance.ShowMap
ADDED from F:\PREST2019\PoliceAttendance\policeFaceBiometrics\src\main\AndroidManifest.xml:125:13-129:29
action#com.policeattendance.ShowMap
ADDED from F:\PREST2019\PoliceAttendance\policeFaceBiometrics\src\main\AndroidManifest.xml:126:17-71
	android:name
		ADDED from F:\PREST2019\PoliceAttendance\policeFaceBiometrics\src\main\AndroidManifest.xml:126:25-68
activity#com.policeattendance.ShowLocation
ADDED from F:\PREST2019\PoliceAttendance\policeFaceBiometrics\src\main\AndroidManifest.xml:131:9-138:20
	android:label
		ADDED from F:\PREST2019\PoliceAttendance\policeFaceBiometrics\src\main\AndroidManifest.xml:133:13-45
	android:theme
		ADDED from F:\PREST2019\PoliceAttendance\policeFaceBiometrics\src\main\AndroidManifest.xml:134:13-60
	android:name
		ADDED from F:\PREST2019\PoliceAttendance\policeFaceBiometrics\src\main\AndroidManifest.xml:132:13-61
intent-filter#android.intent.category.DEFAULT
ADDED from F:\PREST2019\PoliceAttendance\policeFaceBiometrics\src\main\AndroidManifest.xml:135:13-137:29
activity#com.policeattendance.ChoicePage
ADDED from F:\PREST2019\PoliceAttendance\policeFaceBiometrics\src\main\AndroidManifest.xml:139:9-145:20
	android:label
		ADDED from F:\PREST2019\PoliceAttendance\policeFaceBiometrics\src\main\AndroidManifest.xml:141:13-45
	android:name
		ADDED from F:\PREST2019\PoliceAttendance\policeFaceBiometrics\src\main\AndroidManifest.xml:140:13-59
intent-filter#com.policeattendance.ChoicePage
ADDED from F:\PREST2019\PoliceAttendance\policeFaceBiometrics\src\main\AndroidManifest.xml:142:13-144:29
action#com.policeattendance.ChoicePage
ADDED from F:\PREST2019\PoliceAttendance\policeFaceBiometrics\src\main\AndroidManifest.xml:143:17-74
	android:name
		ADDED from F:\PREST2019\PoliceAttendance\policeFaceBiometrics\src\main\AndroidManifest.xml:143:25-71
activity#com.policeattendance.BrowseMap
ADDED from F:\PREST2019\PoliceAttendance\policeFaceBiometrics\src\main\AndroidManifest.xml:146:9-154:20
	android:label
		ADDED from F:\PREST2019\PoliceAttendance\policeFaceBiometrics\src\main\AndroidManifest.xml:148:13-45
	android:name
		ADDED from F:\PREST2019\PoliceAttendance\policeFaceBiometrics\src\main\AndroidManifest.xml:147:13-58
intent-filter#android.intent.category.DEFAULT+com.policeattendance.BrowseMap
ADDED from F:\PREST2019\PoliceAttendance\policeFaceBiometrics\src\main\AndroidManifest.xml:149:13-153:29
action#com.policeattendance.BrowseMap
ADDED from F:\PREST2019\PoliceAttendance\policeFaceBiometrics\src\main\AndroidManifest.xml:150:17-73
	android:name
		ADDED from F:\PREST2019\PoliceAttendance\policeFaceBiometrics\src\main\AndroidManifest.xml:150:25-70
activity#com.policeattendance.LoginActivity
ADDED from F:\PREST2019\PoliceAttendance\policeFaceBiometrics\src\main\AndroidManifest.xml:155:9-157:69
	android:label
		ADDED from F:\PREST2019\PoliceAttendance\policeFaceBiometrics\src\main\AndroidManifest.xml:157:13-57
	android:name
		ADDED from F:\PREST2019\PoliceAttendance\policeFaceBiometrics\src\main\AndroidManifest.xml:156:13-62
activity#com.policeattendance.SuccessActivity
ADDED from F:\PREST2019\PoliceAttendance\policeFaceBiometrics\src\main\AndroidManifest.xml:158:9-166:20
	android:label
		ADDED from F:\PREST2019\PoliceAttendance\policeFaceBiometrics\src\main\AndroidManifest.xml:160:13-59
	android:name
		ADDED from F:\PREST2019\PoliceAttendance\policeFaceBiometrics\src\main\AndroidManifest.xml:159:13-64
intent-filter#android.intent.category.DEFAULT+com.policeattendance.SuccessActivity
ADDED from F:\PREST2019\PoliceAttendance\policeFaceBiometrics\src\main\AndroidManifest.xml:161:13-165:29
action#com.policeattendance.SuccessActivity
ADDED from F:\PREST2019\PoliceAttendance\policeFaceBiometrics\src\main\AndroidManifest.xml:162:17-79
	android:name
		ADDED from F:\PREST2019\PoliceAttendance\policeFaceBiometrics\src\main\AndroidManifest.xml:162:25-76
activity#com.policeattendance.MainActivity
ADDED from F:\PREST2019\PoliceAttendance\policeFaceBiometrics\src\main\AndroidManifest.xml:167:9-175:20
	android:label
		ADDED from F:\PREST2019\PoliceAttendance\policeFaceBiometrics\src\main\AndroidManifest.xml:169:13-45
	android:name
		ADDED from F:\PREST2019\PoliceAttendance\policeFaceBiometrics\src\main\AndroidManifest.xml:168:13-61
intent-filter#android.intent.category.DEFAULT+com.policeattendance.MainActivity
ADDED from F:\PREST2019\PoliceAttendance\policeFaceBiometrics\src\main\AndroidManifest.xml:170:13-174:29
action#com.policeattendance.MainActivity
ADDED from F:\PREST2019\PoliceAttendance\policeFaceBiometrics\src\main\AndroidManifest.xml:171:17-76
	android:name
		ADDED from F:\PREST2019\PoliceAttendance\policeFaceBiometrics\src\main\AndroidManifest.xml:171:25-73
activity#com.policeattendance.ListViewImagesActivity
ADDED from F:\PREST2019\PoliceAttendance\policeFaceBiometrics\src\main\AndroidManifest.xml:176:9-184:20
	android:label
		ADDED from F:\PREST2019\PoliceAttendance\policeFaceBiometrics\src\main\AndroidManifest.xml:178:13-45
	android:name
		ADDED from F:\PREST2019\PoliceAttendance\policeFaceBiometrics\src\main\AndroidManifest.xml:177:13-71
intent-filter#android.intent.category.DEFAULT+com.policeattendance.ListViewImagesActivity
ADDED from F:\PREST2019\PoliceAttendance\policeFaceBiometrics\src\main\AndroidManifest.xml:179:13-183:29
action#com.policeattendance.ListViewImagesActivity
ADDED from F:\PREST2019\PoliceAttendance\policeFaceBiometrics\src\main\AndroidManifest.xml:180:17-86
	android:name
		ADDED from F:\PREST2019\PoliceAttendance\policeFaceBiometrics\src\main\AndroidManifest.xml:180:25-83
activity#com.policeattendance.ShowCirminalInfo
ADDED from F:\PREST2019\PoliceAttendance\policeFaceBiometrics\src\main\AndroidManifest.xml:186:9-190:49
	android:label
		ADDED from F:\PREST2019\PoliceAttendance\policeFaceBiometrics\src\main\AndroidManifest.xml:188:13-45
	android:noHistory
		ADDED from F:\PREST2019\PoliceAttendance\policeFaceBiometrics\src\main\AndroidManifest.xml:190:13-37
	android:theme
		ADDED from F:\PREST2019\PoliceAttendance\policeFaceBiometrics\src\main\AndroidManifest.xml:189:13-61
	android:name
		ADDED from F:\PREST2019\PoliceAttendance\policeFaceBiometrics\src\main\AndroidManifest.xml:187:13-65
activity#com.policeattendance.TestgpsActivity
ADDED from F:\PREST2019\PoliceAttendance\policeFaceBiometrics\src\main\AndroidManifest.xml:191:9-194:49
	android:label
		ADDED from F:\PREST2019\PoliceAttendance\policeFaceBiometrics\src\main\AndroidManifest.xml:193:13-45
	android:noHistory
		ADDED from F:\PREST2019\PoliceAttendance\policeFaceBiometrics\src\main\AndroidManifest.xml:194:13-37
	android:name
		ADDED from F:\PREST2019\PoliceAttendance\policeFaceBiometrics\src\main\AndroidManifest.xml:192:13-64
activity#com.policeattendance.TinPopupDialog
ADDED from F:\PREST2019\PoliceAttendance\policeFaceBiometrics\src\main\AndroidManifest.xml:195:9-197:25
	android:theme
		ADDED from F:\PREST2019\PoliceAttendance\policeFaceBiometrics\src\main\AndroidManifest.xml:196:19-67
	android:name
		ADDED from F:\PREST2019\PoliceAttendance\policeFaceBiometrics\src\main\AndroidManifest.xml:195:19-69
activity#com.policeattendance.FinsOptions
ADDED from F:\PREST2019\PoliceAttendance\policeFaceBiometrics\src\main\AndroidManifest.xml:198:9-200:25
	android:label
		ADDED from F:\PREST2019\PoliceAttendance\policeFaceBiometrics\src\main\AndroidManifest.xml:199:13-45
	android:name
		ADDED from F:\PREST2019\PoliceAttendance\policeFaceBiometrics\src\main\AndroidManifest.xml:198:19-46
activity#com.policeattendance.FaceScanActivity
ADDED from F:\PREST2019\PoliceAttendance\policeFaceBiometrics\src\main\AndroidManifest.xml:201:9-203:25
	android:label
		ADDED from F:\PREST2019\PoliceAttendance\policeFaceBiometrics\src\main\AndroidManifest.xml:202:13-45
	android:name
		ADDED from F:\PREST2019\PoliceAttendance\policeFaceBiometrics\src\main\AndroidManifest.xml:201:19-71
activity#com.policeattendance.EnrollFaceActivity
ADDED from F:\PREST2019\PoliceAttendance\policeFaceBiometrics\src\main\AndroidManifest.xml:204:9-206:25
	android:label
		ADDED from F:\PREST2019\PoliceAttendance\policeFaceBiometrics\src\main\AndroidManifest.xml:205:13-45
	android:name
		ADDED from F:\PREST2019\PoliceAttendance\policeFaceBiometrics\src\main\AndroidManifest.xml:204:19-73
